C:\Users\bibek\Documents\NetBeansProjects\RestaurantManagement\src\main\java\com\mycompany\restaurantmanagement\entity\PurchaseRequest.java
C:\Users\bibek\Documents\NetBeansProjects\RestaurantManagement\src\main\java\com\mycompany\restaurantmanagement\Controller\rest\ItemCategoryController.java
C:\Users\bibek\Documents\NetBeansProjects\RestaurantManagement\src\main\java\com\mycompany\restaurantmanagement\repository\CategoryRepository.java
C:\Users\bibek\Documents\NetBeansProjects\RestaurantManagement\src\main\java\com\mycompany\restaurantmanagement\Controller\rest\PurchaseRequestItemController.java
C:\Users\bibek\Documents\NetBeansProjects\RestaurantManagement\src\main\java\com\mycompany\restaurantmanagement\CoreController\SiteController.java
C:\Users\bibek\Documents\NetBeansProjects\RestaurantManagement\src\main\java\com\mycompany\restaurantmanagement\repository\ItemSupplierRepository.java
C:\Users\bibek\Documents\NetBeansProjects\RestaurantManagement\src\main\java\com\mycompany\restaurantmanagement\Controller\rest\ItemSupplierController.java
C:\Users\bibek\Documents\NetBeansProjects\RestaurantManagement\src\main\java\com\mycompany\restaurantmanagement\entity\PurchaseRequestItem.java
C:\Users\bibek\Documents\NetBeansProjects\RestaurantManagement\src\main\java\com\mycompany\restaurantmanagement\repository\PurchaseRequestRepository.java
C:\Users\bibek\Documents\NetBeansProjects\RestaurantManagement\src\main\java\com\mycompany\restaurantmanagement\ApplicationStarter.java
C:\Users\bibek\Documents\NetBeansProjects\RestaurantManagement\src\main\java\com\mycompany\restaurantmanagement\Generator\Generator.java
C:\Users\bibek\Documents\NetBeansProjects\RestaurantManagement\src\main\java\com\mycompany\restaurantmanagement\repository\UnitRepository.java
C:\Users\bibek\Documents\NetBeansProjects\RestaurantManagement\src\main\java\com\mycompany\restaurantmanagement\entity\ItemCategory.java
C:\Users\bibek\Documents\NetBeansProjects\RestaurantManagement\src\main\java\com\mycompany\restaurantmanagement\entity\ItemSupplier.java
C:\Users\bibek\Documents\NetBeansProjects\RestaurantManagement\src\main\java\com\mycompany\restaurantmanagement\Controller\rest\UnitController.java
C:\Users\bibek\Documents\NetBeansProjects\RestaurantManagement\src\main\java\com\mycompany\restaurantmanagement\Controller\rest\SupplierController.java
C:\Users\bibek\Documents\NetBeansProjects\RestaurantManagement\src\main\java\com\mycompany\restaurantmanagement\repository\SupplierRepository.java
C:\Users\bibek\Documents\NetBeansProjects\RestaurantManagement\src\main\java\com\mycompany\restaurantmanagement\CoreController\CRUDController.java
C:\Users\bibek\Documents\NetBeansProjects\RestaurantManagement\src\main\java\com\mycompany\restaurantmanagement\entity\Item.java
C:\Users\bibek\Documents\NetBeansProjects\RestaurantManagement\src\main\java\com\mycompany\restaurantmanagement\Controller\rest\ItemController.java
C:\Users\bibek\Documents\NetBeansProjects\RestaurantManagement\src\main\java\com\mycompany\restaurantmanagement\Controller\rest\PurchaseRequestController.java
C:\Users\bibek\Documents\NetBeansProjects\RestaurantManagement\src\main\java\com\mycompany\restaurantmanagement\repository\ItemRepository.java
C:\Users\bibek\Documents\NetBeansProjects\RestaurantManagement\src\main\java\com\mycompany\restaurantmanagement\util\FileHelper.java
C:\Users\bibek\Documents\NetBeansProjects\RestaurantManagement\src\main\java\com\mycompany\restaurantmanagement\entity\Unit.java
C:\Users\bibek\Documents\NetBeansProjects\RestaurantManagement\src\main\java\com\mycompany\restaurantmanagement\repository\ItemCategoryRepository.java
C:\Users\bibek\Documents\NetBeansProjects\RestaurantManagement\src\main\java\com\mycompany\restaurantmanagement\repository\PurchaseRequestItemRepository.java
C:\Users\bibek\Documents\NetBeansProjects\RestaurantManagement\src\main\java\com\mycompany\restaurantmanagement\entity\Category.java
C:\Users\bibek\Documents\NetBeansProjects\RestaurantManagement\src\main\java\com\mycompany\restaurantmanagement\Controller\HomeController.java
C:\Users\bibek\Documents\NetBeansProjects\RestaurantManagement\src\main\java\com\mycompany\restaurantmanagement\Controller\rest\CategoryController.java
C:\Users\bibek\Documents\NetBeansProjects\RestaurantManagement\src\main\java\com\mycompany\restaurantmanagement\entity\Supplier.java
C:\Users\bibek\Documents\NetBeansProjects\RestaurantManagement\src\main\java\com\mycompany\restaurantmanagement\util\TextParser.java
